{"page":2,"total_results":19830,"total_pages":992,"results":[{"vote_count":880,"id":373571,"video":false,"vote_average":6.3,"title":"Godzilla: King of the Monsters","popularity":71.497,"poster_path":"\/pU3bnutJU91u3b4IeRPQTOP8jhV.jpg","original_language":"en","original_title":"Godzilla: King of the Monsters","genre_ids":[878,28],"backdrop_path":"\/cNt14e43I2DDW6Xd9zFhrP8eOcA.jpg","adult":false,"overview":"Follows the heroic efforts of the crypto-zoological agency Monarch as its members face off against a battery of god-sized monsters, including the mighty Godzilla, who collides with Mothra, Rodan, and his ultimate nemesis, the three-headed King Ghidorah. When these ancient super-species - thought to be mere myths - rise again, they all vie for supremacy, leaving humanity's very existence hanging in the balance.","release_date":"2019-05-29"},{"vote_count":850,"id":456740,"video":false,"vote_average":5,"title":"Hellboy","popularity":70.84,"poster_path":"\/bk8LyaMqUtaQ9hUShuvFznQYQKR.jpg","original_language":"en","original_title":"Hellboy","genre_ids":[28,12,14,27,878],"backdrop_path":"\/5BkSkNtfrnTuKOtTaZhl8avn4wU.jpg","adult":false,"overview":"Hellboy comes to England, where he must defeat Nimue, Merlin's consort and the Blood Queen. But their battle will bring about the end of the world, a fate he desperately tries to turn away.","release_date":"2019-04-10"},{"vote_count":350,"id":429203,"video":false,"vote_average":6.5,"title":"The Old Man & the Gun","popularity":65.415,"poster_path":"\/a4BfxRK8dBgbQqbRxPs8kmLd8LG.jpg","original_language":"en","original_title":"The Old Man & the Gun","genre_ids":[35,80,18],"backdrop_path":"\/8bRIfPGDnmWgdy65LO8xtdcFmFP.jpg","adult":false,"overview":"The true story of Forrest Tucker, from his audacious escape from San Quentin at the age of 70 to an unprecedented string of heists that confounded authorities and enchanted the public.  Wrapped up in the pursuit are a detective, who becomes captivated with Forrest’s commitment to his craft, and a woman, who loves him in spite of his chosen profession.","release_date":"2018-09-27"},{"vote_count":2,"id":66510,"video":false,"vote_average":2,"title":"Madrasi","popularity":65.276,"poster_path":"\/4F9Y9C5tQqoJbTQfJxLuDiqSOWI.jpg","original_language":"en","original_title":"மதராஸி","genre_ids":[],"backdrop_path":"\/oa1doNS6XnH1ix5kOp1ITyAFHFe.jpg","adult":false,"overview":"Kasi (Arjun) comes to Mumbai to track his parents' killers. He is successful in finding the first two. In order to find the third one he joins a goon Ravi Bhai (Raj Kapoor). This Ravi Bhai is in loggerheads with his own brother, Mani Bhai (Fefsi Vijayn). Mani Bhai runs another gang and the leading goonda in this gang is Siva (Jagapati Babu). Once upon a time in some Jail, Siva and Kasi were good friends. But now they are thirsty for each other's blood. They unite finally when their loved ones are killed.They plot to kill sivas brother by killing vedhika and divert Arjun. Arjun and Vedhika die in the end.","release_date":"2006-07-10"},{"vote_count":2427,"id":420817,"video":false,"vote_average":7.1,"title":"Aladdin","popularity":65.094,"poster_path":"\/3iYQTLGoy7QnjcUYRJy4YrAgGvp.jpg","original_language":"en","original_title":"Aladdin","genre_ids":[12,14,10749,35,10751],"backdrop_path":"\/v4yVTbbl8dE1UP2dWu5CLyaXOku.jpg","adult":false,"overview":"A kindhearted street urchin named Aladdin embarks on a magical adventure after finding a lamp that releases a wisecracking genie while a power-hungry Grand Vizier vies for the same lamp that has the power to make their deepest wishes come true.","release_date":"2019-05-22"},{"vote_count":724,"id":479455,"video":false,"vote_average":5.9,"title":"Men in Black: International","popularity":63.238,"poster_path":"\/dPrUPFcgLfNbmDL8V69vcrTyEfb.jpg","original_language":"en","original_title":"Men in Black: International","genre_ids":[28,35,878,12],"backdrop_path":"\/2FYzxgLNuNVwncilzUeCGbOQzP7.jpg","adult":false,"overview":"The Men in Black have always protected the Earth from the scum of the universe. In this new adventure, they tackle their biggest, most global threat to date: a mole in the Men in Black organization.","release_date":"2019-06-12"},{"vote_count":44,"id":531509,"video":false,"vote_average":6.2,"title":"Otherhood","popularity":61.829,"poster_path":"\/2qVErJgfMcg3TzfYcrbaXBcrXV9.jpg","original_language":"en","original_title":"Otherhood","genre_ids":[35],"backdrop_path":"\/nDJT0VcjMR39lGHDtR7vRUyCIsb.jpg","adult":false,"overview":"Three suburban moms travel to New York City to visit their sons.","release_date":"2019-08-02"},{"vote_count":14,"id":454640,"video":false,"vote_average":6.4,"title":"The Angry Birds Movie 2","popularity":59.617,"poster_path":"\/hdYTrfRKrzdbZ3DE72YxmeB0RNg.jpg","original_language":"en","original_title":"The Angry Birds Movie 2","genre_ids":[16,35,28,12,10751],"backdrop_path":"\/k7sE3loFwuU2mqf7FbZBeE3rjBa.jpg","adult":false,"overview":"The flightless birds and scheming green pigs take their beef to the next level.","release_date":"2019-08-02"},{"vote_count":187,"id":511987,"video":false,"vote_average":5.9,"title":"Crawl","popularity":59.276,"poster_path":"\/mKxpYRIrCZLxZjNqpocJ2RdQW8v.jpg","original_language":"en","original_title":"Crawl","genre_ids":[53,28,27],"backdrop_path":"\/2cAce3oD0Hh7f5XxuXmNXa1WiuZ.jpg","adult":false,"overview":"While struggling to save her father during a Category 5 hurricane, a young woman finds herself trapped inside a flooding house and fighting for her life against Florida’s most savage and feared predators.","release_date":"2019-07-11"},{"vote_count":2,"id":571627,"video":false,"vote_average":1,"title":"The Divine Fury","popularity":59.152,"poster_path":"\/9Z2qT9iZYLzzsCSYu7A4SEQsKX0.jpg","original_language":"ko","original_title":"사자","genre_ids":[28,27,9648],"backdrop_path":"\/4MDYpCwqSVO5RcTiZ4GEfePzDdl.jpg","adult":false,"overview":"Yong-hu, a world champion martial artist who believes in no God, only himself, suddenly develops stigmata on his palms. Visiting a church in hopes of healing the stigmata, he ends up saving Father AHN, who falls into danger while performing an exorcism. In this way he learns of the power of the stigmata. As time passes Yong-hu accepts his new calling and begins saving people who are possessed by demons, but then he must prepare for a final confrontation with the evil Jisin, who ensnares people with the power of the devil.","release_date":"2019-07-31"},{"vote_count":20161,"id":24428,"video":false,"vote_average":7.6,"title":"The Avengers","popularity":57.451,"poster_path":"\/cezWGskPY5x7GaglTTRN4Fugfb8.jpg","original_language":"en","original_title":"The Avengers","genre_ids":[878,28,12],"backdrop_path":"\/hbn46fQaRmlpBuUrEiFqv0GDL6Y.jpg","adult":false,"overview":"When an unexpected enemy emerges and threatens global safety and security, Nick Fury, director of the international peacekeeping agency known as S.H.I.E.L.D., finds himself in need of a team to pull the world back from the brink of disaster. Spanning the globe, a daring recruitment effort begins!","release_date":"2012-04-25"},{"vote_count":367,"id":445629,"video":false,"vote_average":6.6,"title":"Fighting with My Family","popularity":56.28,"poster_path":"\/cVhe15rJLRjolunSWLBN6xQLyGU.jpg","original_language":"en","original_title":"Fighting with My Family","genre_ids":[35,18],"backdrop_path":"\/mYKP6qcDUimVMAHQWLOuDHjO19S.jpg","adult":false,"overview":"Born into a tight-knit wrestling family, Paige and her brother Zak are ecstatic when they get the once-in-a-lifetime opportunity to try out for the WWE. But when only Paige earns a spot in the competitive training program, she must leave her loved ones behind and face this new cutthroat world alone. Paige's journey pushes her to dig deep and ultimately prove to the world that what makes her different is the very thing that can make her a star.","release_date":"2019-02-14"},{"vote_count":8200,"id":424694,"video":false,"vote_average":8.1,"title":"Bohemian Rhapsody","popularity":55.779,"poster_path":"\/lHu1wtNaczFPGFDTrjCSzeLPTKN.jpg","original_language":"en","original_title":"Bohemian Rhapsody","genre_ids":[18,10402],"backdrop_path":"\/xcaSYLBhmDzJ6P14bcKe0KTh3QV.jpg","adult":false,"overview":"Singer Freddie Mercury, guitarist Brian May, drummer Roger Taylor and bass guitarist John Deacon take the music world by storm when they form the rock 'n' roll band Queen in 1970. Hit songs become instant classics. When Mercury's increasingly wild lifestyle starts to spiral out of control, Queen soon faces its greatest challenge yet – finding a way to keep the band together amid the success and excess.","release_date":"2018-10-24"},{"vote_count":55,"id":390634,"video":false,"vote_average":5.3,"title":"Fate\/Stay Night: Heaven’s Feel II. Lost Butterfly","popularity":55.162,"poster_path":"\/4tS0iyKQBDFqVpVcH21MSJwXZdq.jpg","original_language":"ja","original_title":"劇場版 Fate／stay night [Heaven's Feel] II. lost butterfly","genre_ids":[16,28,14,12],"backdrop_path":"\/2zKusjJZd8b2Cdk2C5K9dGFNWiJ.jpg","adult":false,"overview":"Theatrical-release adaptation of the visual novel \"Fate\/stay night\", following the third and final route. (Part 2 of a trilogy.)","release_date":"2019-01-12"},{"vote_count":10498,"id":245891,"video":false,"vote_average":7.2,"title":"John Wick","popularity":55.093,"poster_path":"\/b9uYMMbm87IBFOq59pppvkkkgNg.jpg","original_language":"en","original_title":"John Wick","genre_ids":[28,53],"backdrop_path":"\/umC04Cozevu8nn3JTDJ1pc7PVTn.jpg","adult":false,"overview":"Ex-hitman John Wick comes out of retirement to track down the gangsters that took everything from him.","release_date":"2014-10-22"},{"vote_count":55,"id":537056,"video":false,"vote_average":7.2,"title":"Batman: Hush","popularity":55.069,"poster_path":"\/eiVQORVyVuNNZHPAELuWtlXoQsD.jpg","original_language":"en","original_title":"Batman: Hush","genre_ids":[80,16,9648,28],"backdrop_path":"\/eevJuYAitUe6VwFN29aFwzeyeTr.jpg","adult":false,"overview":"A mysterious new villain known only as Hush uses a gallery of villains to destroy Batman's crime-fighting career as well as Bruce Wayne's personal life, which has been further complicated by a  relationship with Selina Kyle\/Catwoman.","release_date":"2019-07-19"},{"vote_count":12145,"id":315635,"video":false,"vote_average":7.4,"title":"Spider-Man: Homecoming","popularity":54.215,"poster_path":"\/c24sv2weTHPsmDa7jEMN0m2P3RT.jpg","original_language":"en","original_title":"Spider-Man: Homecoming","genre_ids":[28,12,878,18],"backdrop_path":"\/vc8bCGjdVp0UbMNLzHnHSLRbBWQ.jpg","adult":false,"overview":"Following the events of Captain America: Civil War, Peter Parker, with the help of his mentor Tony Stark, tries to balance his life as an ordinary high school student in Queens, New York City, with fighting crime as his superhero alter ego Spider-Man as a new threat, the Vulture, emerges.","release_date":"2017-07-05"},{"vote_count":1706,"id":329996,"video":false,"vote_average":6.5,"title":"Dumbo","popularity":54.213,"poster_path":"\/279PwJAcelI4VuBtdzrZASqDPQr.jpg","original_language":"en","original_title":"Dumbo","genre_ids":[12,10751,14],"backdrop_path":"\/5tFt6iuGnKapHl5tw0X0cKcnuVo.jpg","adult":false,"overview":"A young elephant, whose oversized ears enable him to fly, helps save a struggling circus, but when the circus plans a new venture, Dumbo and his friends discover dark secrets beneath its shiny veneer.","release_date":"2019-03-27"},{"vote_count":11,"id":500922,"video":false,"vote_average":3.9,"title":"A Score to Settle","popularity":51.287,"poster_path":"\/4PBwZGBP6ziKuOgHRpbVRyGoqy3.jpg","original_language":"en","original_title":"A Score to Settle","genre_ids":[28,53,18],"backdrop_path":"\/z0S3XxRvDCNlraounSIZ77pYu6r.jpg","adult":false,"overview":"A former mob enforcer who is released from prison after serving 22 years for a crime he didn't commit sets out on a path for revenge against the people who wronged him.","release_date":"2019-08-01"},{"vote_count":0,"id":449924,"video":false,"vote_average":0,"title":"Ip Man 4","popularity":51.249,"poster_path":"\/mAWBfTDAmfpvQGMVFuzuVl49N1P.jpg","original_language":"cn","original_title":"葉問4","genre_ids":[28,18,36],"backdrop_path":"\/ekP6EVxL81lZ4ivcqPsoZ72rY0h.jpg","adult":false,"overview":"Ip Man 4 is an upcoming Hong Kong biographical martial arts film directed by Wilson Yip and produced by Raymond Wong. It is the fourth in the Ip Man film series based on the life of the Wing Chun grandmaster of the same name and features Donnie Yen reprising the role. The film began production in April 2018 and ended in July the same year.","release_date":"2019-10-18"}]}
