{"page":3,"total_results":19830,"total_pages":992,"results":[{"vote_count":2321,"id":166428,"video":false,"vote_average":7.6,"title":"How to Train Your Dragon: The Hidden World","popularity":51.175,"poster_path":"\/xvx4Yhf0DVH8G4LzNISpMfFBDy2.jpg","original_language":"en","original_title":"How to Train Your Dragon: The Hidden World","genre_ids":[16,10751,12],"backdrop_path":"\/lFwykSz3Ykj1Q3JXJURnGUTNf1o.jpg","adult":false,"overview":"As Hiccup fulfills his dream of creating a peaceful dragon utopia, Toothless’ discovery of an untamed, elusive mate draws the Night Fury away. When danger mounts at home and Hiccup’s reign as village chief is tested, both dragon and rider must make impossible decisions to save their kind.","release_date":"2019-01-03"},{"vote_count":4657,"id":324857,"video":false,"vote_average":8.4,"title":"Spider-Man: Into the Spider-Verse","popularity":50.489,"poster_path":"\/iiZZdoQBEYBv6id8su7ImL0oCbD.jpg","original_language":"en","original_title":"Spider-Man: Into the Spider-Verse","genre_ids":[28,12,16,878,35],"backdrop_path":"\/uUiId6cG32JSRI6RyBQSvQtLjz2.jpg","adult":false,"overview":"Miles Morales is juggling his life between being a high school student and being a spider-man. When Wilson \"Kingpin\" Fisk uses a super collider, others from across the Spider-Verse are transported to this dimension.","release_date":"2018-12-06"},{"vote_count":12872,"id":284054,"video":false,"vote_average":7.4,"title":"Black Panther","popularity":50.069,"poster_path":"\/uxzzxijgPIY7slzFvMotPv8wjKA.jpg","original_language":"en","original_title":"Black Panther","genre_ids":[28,12,14,878],"backdrop_path":"\/6ELJEzQJ3Y45HczvreC3dg0GV5R.jpg","adult":false,"overview":"King T'Challa returns home from America to the reclusive, technologically advanced African nation of Wakanda to serve as his country's new leader. However, T'Challa soon finds that he is challenged for the throne by factions within his own country as well as without. Using powers reserved to Wakandan kings, T'Challa assumes the Black Panther mantel to join with girlfriend Nakia, the queen-mother, his princess-kid sister, members of the Dora Milaje (the Wakandan 'special forces') and an American secret agent, to prevent Wakanda from being dragged into a world war.","release_date":"2018-02-13"},{"vote_count":13900,"id":99861,"video":false,"vote_average":7.3,"title":"Avengers: Age of Ultron","popularity":50.051,"poster_path":"\/t90Y3G8UGQp0f0DrP60wRu9gfrH.jpg","original_language":"en","original_title":"Avengers: Age of Ultron","genre_ids":[28,12,878],"backdrop_path":"\/rFtsE7Lhlc2jRWF7SRAU0fvrveQ.jpg","adult":false,"overview":"When Tony Stark tries to jumpstart a dormant peacekeeping program, things go awry and Earth’s Mightiest Heroes are put to the ultimate test as the fate of the planet hangs in the balance. As the villainous Ultron emerges, it is up to The Avengers to stop him from enacting his terrible plans, and soon uneasy alliances and unexpected action pave the way for an epic and unique global adventure.","release_date":"2015-04-22"},{"vote_count":1286,"id":320288,"video":false,"vote_average":6.2,"title":"Dark Phoenix","popularity":49.309,"poster_path":"\/kZv92eTc0Gg3mKxqjjDAM73z9cy.jpg","original_language":"en","original_title":"Dark Phoenix","genre_ids":[878,28],"backdrop_path":"\/phxiKFDvPeQj4AbkvJLmuZEieDU.jpg","adult":false,"overview":"The X-Men face their most formidable and powerful foe when one of their own, Jean Grey, starts to spiral out of control. During a rescue mission in outer space, Jean is nearly killed when she's hit by a mysterious cosmic force. Once she returns home, this force not only makes her infinitely more powerful, but far more unstable. The X-Men must now band together to save her soul and battle aliens that want to use Grey's new abilities to rule the galaxy.","release_date":"2019-06-05"},{"vote_count":1332,"id":375588,"video":false,"vote_average":5.8,"title":"Robin Hood","popularity":49.033,"poster_path":"\/AiRfixFcfTkNbn2A73qVJPlpkUo.jpg","original_language":"en","original_title":"Robin Hood","genre_ids":[12,28,53],"backdrop_path":"\/axjFiijtxdfK3CD9dMwrdgLwblD.jpg","adult":false,"overview":"A war-hardened Crusader and his Moorish commander mount an audacious revolt against the corrupt English crown.","release_date":"2018-11-20"},{"vote_count":19067,"id":157336,"video":false,"vote_average":8.2,"title":"Interstellar","popularity":48.322,"poster_path":"\/nBNZadXqJSdt05SHLqgT0HuC5Gm.jpg","original_language":"en","original_title":"Interstellar","genre_ids":[12,18,878],"backdrop_path":"\/xu9zaAevzQ5nnrsXN6JcahLnG4i.jpg","adult":false,"overview":"Interstellar chronicles the adventures of a group of explorers who make use of a newly discovered wormhole to surpass the limitations on human space travel and conquer the vast distances involved in an interstellar voyage.","release_date":"2014-11-05"},{"vote_count":150,"id":468224,"video":false,"vote_average":6.8,"title":"Tolkien","popularity":48.252,"poster_path":"\/A7eYO3t7oZQdfJj5KlJBI7GhT9H.jpg","original_language":"en","original_title":"Tolkien","genre_ids":[18,36,10752],"backdrop_path":"\/uzJbHWze4FcouxyWFsiTRs00IES.jpg","adult":false,"overview":"Explore the formative years of the orphaned author as he finds friendship, love and artistic inspiration among a group of fellow outcasts at school. This takes him into the outbreak of World War I, which threatens to tear the “fellowship” apart. All of these experiences would inspire Tolkien to write his famous Middle-Earth novels.","release_date":"2019-05-03"},{"vote_count":18412,"id":118340,"video":false,"vote_average":7.9,"title":"Guardians of the Galaxy","popularity":47.972,"poster_path":"\/y31QB9kn3XSudA15tV7UWQ9XLuW.jpg","original_language":"en","original_title":"Guardians of the Galaxy","genre_ids":[28,878,12],"backdrop_path":"\/kHex2XdOmGtazk1VfJjp4bl7BIc.jpg","adult":false,"overview":"Light years from Earth, 26 years after being abducted, Peter Quill finds himself the prime target of a manhunt after discovering an orb wanted by Ronan the Accuser.","release_date":"2014-07-30"},{"vote_count":11834,"id":284053,"video":false,"vote_average":7.5,"title":"Thor: Ragnarok","popularity":47.845,"poster_path":"\/rzRwTcFvttcN1ZpX2xv4j3tSdJu.jpg","original_language":"en","original_title":"Thor: Ragnarok","genre_ids":[28,12,35,14],"backdrop_path":"\/kaIfm5ryEOwYg8mLbq8HkPuM1Fo.jpg","adult":false,"overview":"Thor is imprisoned on the other side of the universe and finds himself in a race against time to get back to Asgard to stop Ragnarok, the destruction of his home-world and the end of Asgardian civilization, at the hands of an all-powerful new threat, the ruthless Hela.","release_date":"2017-10-25"},{"vote_count":6719,"id":335983,"video":false,"vote_average":6.6,"title":"Venom","popularity":46.534,"poster_path":"\/2uNW4WbgBXL25BAbXGLnLqX71Sw.jpg","original_language":"en","original_title":"Venom","genre_ids":[878,28],"backdrop_path":"\/VuukZLgaCrho2Ar8Scl9HtV3yD.jpg","adult":false,"overview":"Investigative journalist Eddie Brock attempts a comeback following a scandal, but accidentally becomes the host of Venom, a violent, super powerful alien symbiote. Soon, he must rely on his newfound powers to protect the world from a shadowy organization looking for a symbiote of their own.","release_date":"2018-09-28"},{"vote_count":14325,"id":671,"video":false,"vote_average":7.8,"title":"Harry Potter and the Philosopher's Stone","popularity":46.445,"poster_path":"\/dCtFvscYcXQKTNvyyaQr2g2UacJ.jpg","original_language":"en","original_title":"Harry Potter and the Philosopher's Stone","genre_ids":[12,14,10751],"backdrop_path":"\/hziiv14OpD73u9gAak4XDDfBKa2.jpg","adult":false,"overview":"Harry Potter has lived under the stairs at his aunt and uncle's house his whole life. But on his 11th birthday, he learns he's a powerful wizard -- with a place waiting for him at the Hogwarts School of Witchcraft and Wizardry. As he learns to harness his newfound powers with the help of the school's kindly headmaster, Harry uncovers the truth about his parents' deaths -- and about the villain who's to blame.","release_date":"2001-11-16"},{"vote_count":6859,"id":335984,"video":false,"vote_average":7.4,"title":"Blade Runner 2049","popularity":45.986,"poster_path":"\/gajva2L0rPYkEWjzgFlBXCAVBE5.jpg","original_language":"en","original_title":"Blade Runner 2049","genre_ids":[878,18],"backdrop_path":"\/sAtoMqDVhNDQBc3QJL3RF6hlhGq.jpg","adult":false,"overview":"Thirty years after the events of the first film, a new blade runner, LAPD Officer K, unearths a long-buried secret that has the potential to plunge what's left of society into chaos. K's discovery leads him on a quest to find Rick Deckard, a former LAPD blade runner who has been missing for 30 years.","release_date":"2017-10-04"},{"vote_count":1688,"id":537915,"video":false,"vote_average":5.9,"title":"After","popularity":45.346,"poster_path":"\/u3B2YKUjWABcxXZ6Nm9h10hLUbh.jpg","original_language":"en","original_title":"After","genre_ids":[18,10749],"backdrop_path":"\/997ToEZvF2Obp9zNZbY5ELVnmrW.jpg","adult":false,"overview":"Tessa Young is a dedicated student, dutiful daughter and loyal girlfriend to her high school sweetheart. Entering her first semester of college, Tessa's guarded world opens up when she meets Hardin Scott, a mysterious and brooding rebel who makes her question all she thought she knew about herself -- and what she wants out of life.","release_date":"2019-04-11"},{"vote_count":2287,"id":458723,"video":false,"vote_average":7,"title":"Us","popularity":44.976,"poster_path":"\/ux2dU1jQ2ACIMShzB3yP93Udpzc.jpg","original_language":"en","original_title":"Us","genre_ids":[53,27],"backdrop_path":"\/6BDZOPnZwcouwBO1dIEI0QGQeLv.jpg","adult":false,"overview":"Husband and wife Gabe and Adelaide Wilson take their kids to their beach house expecting to unplug and unwind with friends. But as night descends, their serenity turns to tension and chaos when some shocking visitors arrive uninvited.","release_date":"2019-03-14"},{"vote_count":8588,"id":122917,"video":false,"vote_average":7.3,"title":"The Hobbit: The Battle of the Five Armies","popularity":44.951,"poster_path":"\/9zRzFJuaj0CHIOhAkcCcFTvyu2X.jpg","original_language":"en","original_title":"The Hobbit: The Battle of the Five Armies","genre_ids":[28,12,14],"backdrop_path":"\/qhH3GyIfAnGv1pjdV3mw03qAilg.jpg","adult":false,"overview":"Immediately after the events of The Desolation of Smaug, Bilbo and the dwarves try to defend Erebor's mountain of treasure from others who claim it: the men of the ruined Laketown and the elves of Mirkwood. Meanwhile an army of Orcs led by Azog the Defiler is marching on Erebor, fueled by the rise of the dark lord Sauron. Dwarves, elves and men must unite, and the hope for Middle-Earth falls into Bilbo's hands.","release_date":"2014-12-10"},{"vote_count":3,"id":577970,"video":false,"vote_average":6.5,"title":"Dilan 1991","popularity":44.082,"poster_path":"\/gZX9F8Q9QUAKAsGAotlH1fVwHFq.jpg","original_language":"id","original_title":"Dilan 1991","genre_ids":[10749,18],"backdrop_path":"\/6kFFYxGNi0sRbjKGIHn2Wev1pnb.jpg","adult":false,"overview":"Dilan & Milea are now dating. But as time goes by, Dilan has to choose between his motorcycle club or Milea.","release_date":"2019-02-28"},{"vote_count":22686,"id":27205,"video":false,"vote_average":8.3,"title":"Inception","popularity":43.811,"poster_path":"\/qmDpIHrmpJINaRKAfWQfftjCdyi.jpg","original_language":"en","original_title":"Inception","genre_ids":[28,878,12],"backdrop_path":"\/s2bT29y0ngXxxu2IA8AOzzXTRhd.jpg","adult":false,"overview":"Cobb, a skilled thief who commits corporate espionage by infiltrating the subconscious of his targets is offered a chance to regain his old life as payment for a task considered to be impossible: \"inception\", the implantation of another person's idea into a target's subconscious.","release_date":"2010-07-15"},{"vote_count":16191,"id":1726,"video":false,"vote_average":7.6,"title":"Iron Man","popularity":43.606,"poster_path":"\/78lPtwv72eTNqFW9COBYI0dWDJa.jpg","original_language":"en","original_title":"Iron Man","genre_ids":[28,878,12],"backdrop_path":"\/ZQixhAZx6fH1VNafFXsqa1B8QI.jpg","adult":false,"overview":"After being held captive in an Afghan cave, billionaire engineer Tony Stark creates a unique weaponized suit of armor to fight evil.","release_date":"2008-04-30"},{"vote_count":5504,"id":627,"video":false,"vote_average":8,"title":"Trainspotting","popularity":42.585,"poster_path":"\/p1O3eFsdb0GEIYu87xlwV7P4jM1.jpg","original_language":"en","original_title":"Trainspotting","genre_ids":[18,80],"backdrop_path":"\/Aw0z8bUhGljT0ots6udf1MTLEMi.jpg","adult":false,"overview":"Mark Renton, deeply immersed in the Edinburgh drug scene, tries to clean up and get out, despite the allure of the drugs and influence of friends.","release_date":"1996-02-23"}]}
