{"page":4,"total_results":19830,"total_pages":992,"results":[{"vote_count":6,"id":143409,"video":false,"vote_average":4.5,"title":"Inflatable Sex Doll of The Wastelands","popularity":42.301,"poster_path":"\/5IjTpkPghnqD3jIZCCdPT8AsOpg.jpg","original_language":"ja","original_title":"荒野のダッチワイフ","genre_ids":[80,18],"backdrop_path":null,"adult":false,"overview":"A wealthy real estate investor receives a film showing the rape and murder of his girlfriend. He hires a private detective, and shows him the film-- which he criticizes for its poor cinematography--- so that the detective can find the criminals and bring them to justice.","release_date":"1967-10-03"},{"vote_count":58,"id":280960,"video":false,"vote_average":4.4,"title":"Catarina and the others","popularity":42.276,"poster_path":"\/kZMCbp0o46Tsg43omSHNHJKNTx9.jpg","original_language":"pt","original_title":"Catarina e os Outros","genre_ids":[18,9648],"backdrop_path":"\/8FfD5WXHrJLx0r4expl9IIBMsOW.jpg","adult":false,"overview":"Outside, the first sun rays break the dawn.  Sixteen years old Catarina can't fall asleep.  Inconsequently, in the big city adults are moved by desire...  Catarina found she is HIV positive. She wants to drag everyone else along.","release_date":"2011-03-01"},{"vote_count":19303,"id":155,"video":false,"vote_average":8.4,"title":"The Dark Knight","popularity":42.248,"poster_path":"\/qJ2tW6WMUDux911r6m7haRef0WH.jpg","original_language":"en","original_title":"The Dark Knight","genre_ids":[18,28,80,53],"backdrop_path":"\/hqkIcbrOHL86UncnHIsHVcVmzue.jpg","adult":false,"overview":"Batman raises the stakes in his war on crime. With the help of Lt. Jim Gordon and District Attorney Harvey Dent, Batman sets out to dismantle the remaining criminal organizations that plague the streets. The partnership proves to be effective, but they soon find themselves prey to a reign of chaos unleashed by a rising criminal mastermind known to the terrified citizens of Gotham as the Joker.","release_date":"2008-07-16"},{"vote_count":7737,"id":141052,"video":false,"vote_average":6.2,"title":"Justice League","popularity":41.983,"poster_path":"\/eifGNCSDuxJeS1loAXil5bIGgvC.jpg","original_language":"en","original_title":"Justice League","genre_ids":[28,12,14,878],"backdrop_path":"\/o5T8rZxoWSBMYwjsUFUqTt6uMQB.jpg","adult":false,"overview":"Fuelled by his restored faith in humanity and inspired by Superman's selfless act, Bruce Wayne and Diana Prince assemble a team of metahumans consisting of Barry Allen, Arthur Curry and Victor Stone to face the catastrophic threat of Steppenwolf and the Parademons who are on the hunt for three Mother Boxes on Earth.","release_date":"2017-11-15"},{"vote_count":13117,"id":10195,"video":false,"vote_average":6.7,"title":"Thor","popularity":41.954,"poster_path":"\/9zDwvsISU8bR15R2yN3kh1lfqve.jpg","original_language":"en","original_title":"Thor","genre_ids":[12,14,28],"backdrop_path":"\/LvmmDZxkTDqp0DX7mUo621ahdX.jpg","adult":false,"overview":"Against his father Odin's will, The Mighty Thor - a powerful but arrogant warrior god - recklessly reignites an ancient war. Thor is cast down to Earth and forced to live among humans as punishment. Once here, Thor learns what it takes to be a true hero when the most dangerous villain of his world sends the darkest forces of Asgard to invade Earth.","release_date":"2011-04-21"},{"vote_count":6235,"id":351286,"video":false,"vote_average":6.5,"title":"Jurassic World: Fallen Kingdom","popularity":41.819,"poster_path":"\/c9XxwwhPHdaImA2f1WEfEsbhaFB.jpg","original_language":"en","original_title":"Jurassic World: Fallen Kingdom","genre_ids":[28,12,878],"backdrop_path":"\/3s9O5af2xWKWR5JzP2iJZpZeQQg.jpg","adult":false,"overview":"Three years after the demise of Jurassic World, a volcanic eruption threatens the remaining dinosaurs on the isla Nublar, so Claire Dearing, the former park manager, recruits Owen Grady to help prevent the extinction of the dinosaurs once again.","release_date":"2018-06-06"},{"vote_count":6702,"id":363088,"video":false,"vote_average":7,"title":"Ant-Man and the Wasp","popularity":41.804,"poster_path":"\/eivQmS3wqzqnQWILHLc4FsEfcXP.jpg","original_language":"en","original_title":"Ant-Man and the Wasp","genre_ids":[28,12,878,35],"backdrop_path":"\/6P3c80EOm7BodndGBUAJHHsHKrp.jpg","adult":false,"overview":"Just when his time under house arrest is about to end, Scott Lang once again puts his freedom at risk to help Hope van Dyne and Dr. Hank Pym dive into the quantum realm and try to accomplish, against time and any chance of success, a very dangerous rescue mission.","release_date":"2018-07-04"},{"vote_count":20602,"id":293660,"video":false,"vote_average":7.6,"title":"Deadpool","popularity":41.185,"poster_path":"\/inVq3FRqcYIRl2la8iZikYYxFNR.jpg","original_language":"en","original_title":"Deadpool","genre_ids":[28,12,35],"backdrop_path":"\/n1y094tVDFATSzkTnFxoGZ1qNsG.jpg","adult":false,"overview":"Deadpool tells the origin story of former Special Forces operative turned mercenary Wade Wilson, who after being subjected to a rogue experiment that leaves him with accelerated healing powers, adopts the alter ego Deadpool. Armed with his new abilities and a dark, twisted sense of humor, Deadpool hunts down the man who nearly destroyed his life.","release_date":"2016-02-09"},{"vote_count":12135,"id":672,"video":false,"vote_average":7.7,"title":"Harry Potter and the Chamber of Secrets","popularity":40.93,"poster_path":"\/sdEOH0992YZ0QSxgXNIGLq1ToUi.jpg","original_language":"en","original_title":"Harry Potter and the Chamber of Secrets","genre_ids":[12,14,10751],"backdrop_path":"\/avqzwKn89VetTEvAlBePt3Us6Al.jpg","adult":false,"overview":"Ignoring threats to his life, Harry returns to Hogwarts to investigate – aided by Ron and Hermione – a mysterious series of attacks.","release_date":"2002-11-13"},{"vote_count":2645,"id":424783,"video":false,"vote_average":6.5,"title":"Bumblebee","popularity":40.735,"poster_path":"\/fw02ONlDhrYjTSZV8XO6hhU3ds3.jpg","original_language":"en","original_title":"Bumblebee","genre_ids":[28,12,878],"backdrop_path":"\/17nDJQsGVim6oows2TlN98UacbO.jpg","adult":false,"overview":"On the run in the year 1987, Bumblebee finds refuge in a junkyard in a small Californian beach town. Charlie, on the cusp of turning 18 and trying to find her place in the world, discovers Bumblebee, battle-scarred and broken.  When Charlie revives him, she quickly learns this is no ordinary yellow VW bug.","release_date":"2018-12-15"},{"vote_count":10487,"id":76338,"video":false,"vote_average":6.7,"title":"Thor: The Dark World","popularity":40.273,"poster_path":"\/bnX5PqAdQZRXSw3aX3DutDcdso5.jpg","original_language":"en","original_title":"Thor: The Dark World","genre_ids":[28,12,14],"backdrop_path":"\/3FweBee0xZoY77uO1bhUOlQorNH.jpg","adult":false,"overview":"Thor fights to restore order across the cosmos… but an ancient race led by the vengeful Malekith returns to plunge the universe back into darkness. Faced with an enemy that even Odin and Asgard cannot withstand, Thor must embark on his most perilous and personal journey yet, one that will reunite him with Jane Foster and force him to sacrifice everything to save us all.","release_date":"2013-10-29"},{"vote_count":3569,"id":450465,"video":false,"vote_average":6.5,"title":"Glass","popularity":39.878,"poster_path":"\/svIDTNUoajS8dLEo7EosxvyAsgJ.jpg","original_language":"en","original_title":"Glass","genre_ids":[53,18,878],"backdrop_path":"\/rL1ITQuX0lmSNPu52pRRHUyim5N.jpg","adult":false,"overview":"In a series of escalating encounters, former security guard David Dunn uses his supernatural abilities to track Kevin Wendell Crumb, a disturbed man who has twenty-four personalities. Meanwhile, the shadowy presence of Elijah Price emerges as an orchestrator who holds secrets critical to both men.","release_date":"2019-01-16"},{"vote_count":14852,"id":120,"video":false,"vote_average":8.3,"title":"The Lord of the Rings: The Fellowship of the Ring","popularity":39.799,"poster_path":"\/56zTpe2xvaA4alU51sRWPoKPYZy.jpg","original_language":"en","original_title":"The Lord of the Rings: The Fellowship of the Ring","genre_ids":[12,14,28],"backdrop_path":"\/pIUvQ9Ed35wlWhY2oU6OmwEsmzG.jpg","adult":false,"overview":"Young hobbit Frodo Baggins, after inheriting a mysterious ring from his uncle Bilbo, must leave his home in order to keep it from falling into the hands of its evil creator. Along the way, a fellowship is formed to protect the ringbearer and make sure that the ring arrives at its final destination: Mt. Doom, the only place where it can be destroyed.","release_date":"2001-12-18"},{"vote_count":12919,"id":283995,"video":false,"vote_average":7.7,"title":"Guardians of the Galaxy Vol. 2","popularity":39.776,"poster_path":"\/y4MBh0EjBlMuOzv9axM4qJlmhzz.jpg","original_language":"en","original_title":"Guardians of the Galaxy Vol. 2","genre_ids":[28,12,35,878],"backdrop_path":"\/tM894AtE7UQTJEoQG6qF6mdfSUT.jpg","adult":false,"overview":"The Guardians must fight to keep their newfound family together as they unravel the mysteries of Peter Quill's true parentage.","release_date":"2017-04-19"},{"vote_count":9156,"id":383498,"video":false,"vote_average":7.5,"title":"Deadpool 2","popularity":39.698,"poster_path":"\/to0spRl1CMDvyUbOnbb4fTk3VAd.jpg","original_language":"en","original_title":"Deadpool 2","genre_ids":[28,35,12],"backdrop_path":"\/3P52oz9HPQWxcwHOwxtyrVV1LKi.jpg","adult":false,"overview":"Wisecracking mercenary Deadpool battles the evil and powerful Cable and other bad guys to save a boy's life.","release_date":"2018-05-10"},{"vote_count":14416,"id":271110,"video":false,"vote_average":7.4,"title":"Captain America: Civil War","popularity":39.659,"poster_path":"\/kSBXou5Ac7vEqKd97wotJumyJvU.jpg","original_language":"en","original_title":"Captain America: Civil War","genre_ids":[12,28,878],"backdrop_path":"\/m5O3SZvQ6EgD5XXXLPIP1wLppeW.jpg","adult":false,"overview":"Following the events of Age of Ultron, the collective governments of the world pass an act designed to regulate all superhuman activity. This polarizes opinion amongst the Avengers, causing two factions to side with Iron Man or Captain America, which causes an epic battle between former allies.","release_date":"2016-04-27"},{"vote_count":1515,"id":522681,"video":false,"vote_average":6.4,"title":"Escape Room","popularity":39.543,"poster_path":"\/8Ls1tZ6qjGzfGHjBB7ihOnf7f0b.jpg","original_language":"en","original_title":"Escape Room","genre_ids":[53,28,27,878],"backdrop_path":"\/mWLljCmpqlcYQh7uh51BBMwCZwN.jpg","adult":false,"overview":"Six strangers find themselves in circumstances beyond their control, and must use their wits to survive.","release_date":"2019-01-03"},{"vote_count":1909,"id":428078,"video":false,"vote_average":6,"title":"Mortal Engines","popularity":39.215,"poster_path":"\/gLhYg9NIvIPKVRTtvzCWnp1qJWG.jpg","original_language":"en","original_title":"Mortal Engines","genre_ids":[12,14],"backdrop_path":"\/rm2oMykm5nX6SzXFr7TGHkO6r8Z.jpg","adult":false,"overview":"Many thousands of years in the future, Earth’s cities roam the globe on huge wheels, devouring each other in a struggle for ever diminishing resources. On one of these massive traction cities, the old London, Tom Natsworthy has an unexpected encounter with a mysterious young woman from the wastelands who will change the course of his life forever.","release_date":"2018-11-27"},{"vote_count":1119,"id":157433,"video":false,"vote_average":5.8,"title":"Pet Sematary","popularity":38.853,"poster_path":"\/7SPhr7Qj39vbnfF9O2qHRYaKHAL.jpg","original_language":"en","original_title":"Pet Sematary","genre_ids":[53,9648,27],"backdrop_path":"\/n2aX63BmW7zIKgKJ58e6rKlSsdi.jpg","adult":false,"overview":"Dr. Louis Creed and his wife, Rachel, relocate from Boston to rural Maine with their two young children. The couple soon discover a mysterious burial ground hidden deep in the woods near their new home. When tragedy strikes, Louis turns to his neighbour Jud Crandall, setting off a perilous chain reaction that unleashes an unspeakable evil with horrific consequences.","release_date":"2019-04-04"},{"vote_count":0,"id":618019,"video":false,"vote_average":0,"title":"Awake","popularity":38.849,"poster_path":"\/lQ3AjOzpPWyE8Gc4avKneWadUtR.jpg","original_language":"en","original_title":"Awake","genre_ids":[28,80,53],"backdrop_path":"\/157z3dQe2vlElp6IFJnvpIMyeUW.jpg","adult":false,"overview":"A man wakes in a hospital bed with no recollection of who he is, and learns that he's wanted by the police for a committing a series of murders.","release_date":"2019-08-16"}]}
