{"page":5,"total_results":19830,"total_pages":992,"results":[{"vote_count":13493,"id":278,"video":false,"vote_average":8.7,"title":"The Shawshank Redemption","popularity":38.825,"poster_path":"\/9O7gLzmreU0nGkIB6K3BsJbzvNv.jpg","original_language":"en","original_title":"The Shawshank Redemption","genre_ids":[18,80],"backdrop_path":"\/j9XKiZrVeViAixVRzCta7h1VU9W.jpg","adult":false,"overview":"Framed in the 1940s for the double murder of his wife and her lover, upstanding banker Andy Dufresne begins a new life at the Shawshank prison, where he puts his accounting skills to work for an amoral warden. During his long stretch in prison, Dufresne comes to be admired by the other inmates -- including an older prisoner named Red -- for his integrity and unquenchable sense of hope.","release_date":"1994-09-23"},{"vote_count":10639,"id":205596,"video":false,"vote_average":8.1,"title":"The Imitation Game","popularity":38.771,"poster_path":"\/noUp0XOqIcmgefRnRZa1nhtRvWO.jpg","original_language":"en","original_title":"The Imitation Game","genre_ids":[36,18,53,10752],"backdrop_path":"\/qcb6z1HpokTOKdjqDTsnjJk0Xvg.jpg","adult":false,"overview":"Based on the real life story of legendary cryptanalyst Alan Turing, the film portrays the nail-biting race against time by Turing and his brilliant team of code-breakers at Britain's top-secret Government Code and Cypher School at Bletchley Park, during the darkest days of World War II.","release_date":"2014-11-14"},{"vote_count":6488,"id":337339,"video":false,"vote_average":6.9,"title":"The Fate of the Furious","popularity":38.738,"poster_path":"\/dImWM7GJqryWJO9LHa3XQ8DD5NH.jpg","original_language":"en","original_title":"The Fate of the Furious","genre_ids":[28,80,53],"backdrop_path":"\/jzdnhRhG0dsuYorwvSqPqqnM1cV.jpg","adult":false,"overview":"When a mysterious woman seduces Dom into the world of crime and a betrayal of those closest to him, the crew face trials that will test them as never before.","release_date":"2017-04-12"},{"vote_count":4056,"id":348350,"video":false,"vote_average":6.6,"title":"Solo: A Star Wars Story","popularity":38.378,"poster_path":"\/3IGbjc5ZC5yxim5W0sFING2kdcz.jpg","original_language":"en","original_title":"Solo: A Star Wars Story","genre_ids":[28,12,878],"backdrop_path":"\/5DUqFLgkLsJxyqPCAcgTivZy2SX.jpg","adult":false,"overview":"Through a series of daring escapades deep within a dark and dangerous criminal underworld, Han Solo meets his mighty future copilot Chewbacca and encounters the notorious gambler Lando Calrissian.","release_date":"2018-05-15"},{"vote_count":12890,"id":297762,"video":false,"vote_average":7.3,"title":"Wonder Woman","popularity":38.279,"poster_path":"\/imekS7f1OuHyUP2LAiTEM0zBzUz.jpg","original_language":"en","original_title":"Wonder Woman","genre_ids":[28,12,14],"backdrop_path":"\/6iUNJZymJBMXXriQyFZfLAKnjO6.jpg","adult":false,"overview":"An Amazon princess comes to the world of Man in the grips of the First World War to confront the forces of evil and bring an end to human conflict.","release_date":"2017-05-30"},{"vote_count":561,"id":480414,"video":false,"vote_average":5.5,"title":"The Curse of La Llorona","popularity":38.202,"poster_path":"\/jhZlXSnFUpNiLAek9EkPrtLEWQI.jpg","original_language":"en","original_title":"The Curse of La Llorona","genre_ids":[53,27,9648],"backdrop_path":"\/drpgGlcOarywXgwhb4Dap9QtSlg.jpg","adult":false,"overview":"A social worker dealing with the disappearance of two children fears for her own family after beginning the investigation.","release_date":"2019-04-17"},{"vote_count":10675,"id":862,"video":false,"vote_average":7.9,"title":"Toy Story","popularity":38.193,"poster_path":"\/rhIRbceoE9lR4veEXuwCC2wARtG.jpg","original_language":"en","original_title":"Toy Story","genre_ids":[16,35,10751],"backdrop_path":"\/dji4Fm0gCDVb9DQQMRvAI8YNnTz.jpg","adult":false,"overview":"Led by Woody, Andy's toys live happily in his room until Andy's birthday brings Buzz Lightyear onto the scene. Afraid of losing his place in Andy's heart, Woody plots against Buzz. But when circumstances separate Buzz and Woody from their owner, the duo eventually learns to put aside their differences.","release_date":"1995-10-30"},{"vote_count":11723,"id":11,"video":false,"vote_average":8.2,"title":"Star Wars","popularity":38.065,"poster_path":"\/btTdmkgIvOi0FFip1sPuZI2oQG6.jpg","original_language":"en","original_title":"Star Wars","genre_ids":[12,28,878],"backdrop_path":"\/4iJfYYoQzZcONB9hNzg0J0wWyPH.jpg","adult":false,"overview":"Princess Leia is captured and held hostage by the evil Imperial forces in their effort to take over the galactic Empire. Venturesome Luke Skywalker and dashing captain Han Solo team together with the loveable robot duo R2-D2 and C-3PO to rescue the beautiful princess and restore peace and justice in the Empire.","release_date":"1977-05-25"},{"vote_count":4001,"id":353081,"video":false,"vote_average":7.3,"title":"Mission: Impossible - Fallout","popularity":37.93,"poster_path":"\/AkJQpZp9WoNdj7pLYSj1L0RcMMN.jpg","original_language":"en","original_title":"Mission: Impossible - Fallout","genre_ids":[28,12],"backdrop_path":"\/aw4FOsWr2FY373nKSxbpNi3fz4F.jpg","adult":false,"overview":"When an IMF mission ends badly, the world is faced with dire consequences. As Ethan Hunt takes it upon himself to fulfill his original briefing, the CIA begin to question his loyalty and his motives. The IMF team find themselves in a race against time, hunted by assassins while trying to prevent a global catastrophe.","release_date":"2018-07-13"},{"vote_count":12664,"id":22,"video":false,"vote_average":7.7,"title":"Pirates of the Caribbean: The Curse of the Black Pearl","popularity":37.811,"poster_path":"\/tkt9xR1kNX5R9rCebASKck44si2.jpg","original_language":"en","original_title":"Pirates of the Caribbean: The Curse of the Black Pearl","genre_ids":[12,14,28],"backdrop_path":"\/8AUQ7YlJJA9C8kWk8P4YNHIcFDE.jpg","adult":false,"overview":"Jack Sparrow, a freewheeling 18th-century pirate, quarrels with a rival pirate bent on pillaging Port Royal. When the governor's daughter is kidnapped, Sparrow decides to help the girl's love save her.","release_date":"2003-07-09"},{"vote_count":324,"id":612152,"video":false,"vote_average":5.5,"title":"Secret Obsession","popularity":37.762,"poster_path":"\/r9hRGmNsKxfeu9UH7lKvYEkIJgv.jpg","original_language":"en","original_title":"Secret Obsession","genre_ids":[18,53],"backdrop_path":"\/uQUlZIyrVmOfVVj2JRrPmRcn6M1.jpg","adult":false,"overview":"Newlywed Jennifer is brutally attacked at a dark rest stop. While healing from her injuries, she can’t recall anything from her past, including the ordeal. Her husband, Russell , is just thankful she’s alive and eager to get her home. As he reintroduces her to their secluded mountain estate, Detective Page  pursues Jennifer’s assailant — his own daughter went missing and was never found. The same fate now awaits Jennifer, unless someone realizes that her loving caretaker is actually her captor.","release_date":"2019-07-18"},{"vote_count":6639,"id":297802,"video":false,"vote_average":6.8,"title":"Aquaman","popularity":37.566,"poster_path":"\/5Kg76ldv7VxeX9YlcQXiowHgdX6.jpg","original_language":"en","original_title":"Aquaman","genre_ids":[28,12,14],"backdrop_path":"\/9QusGjxcYvfPD1THg6oW3RLeNn7.jpg","adult":false,"overview":"Once home to the most advanced civilization on Earth, Atlantis is now an underwater kingdom ruled by the power-hungry King Orm. With a vast army at his disposal, Orm plans to conquer the remaining oceanic people and then the surface world. Standing in his way is Arthur Curry, Orm's half-human, half-Atlantean brother and true heir to the throne.","release_date":"2018-12-07"},{"vote_count":856,"id":438650,"video":false,"vote_average":5.4,"title":"Cold Pursuit","popularity":37.262,"poster_path":"\/hXgmWPd1SuujRZ4QnKLzrj79PAw.jpg","original_language":"en","original_title":"Cold Pursuit","genre_ids":[28,18,80,53],"backdrop_path":"\/aiM3XxYE2JvW1vJ4AC6cI1RjAoT.jpg","adult":false,"overview":"The quiet family life of Nels Coxman, a snowplow driver, is upended after his son's murder. Nels begins a vengeful hunt for Viking, the drug lord he holds responsible for the killing, eliminating Viking's associates one by one. As Nels draws closer to Viking, his actions bring even more unexpected and violent consequences, as he proves that revenge is all in the execution.","release_date":"2019-02-07"},{"vote_count":10571,"id":8587,"video":false,"vote_average":8.2,"title":"The Lion King","popularity":37.191,"poster_path":"\/sKCr78MXSLixwmZ8DyJLrpMsd15.jpg","original_language":"en","original_title":"The Lion King","genre_ids":[10751,16,18],"backdrop_path":"\/kZ9CKeZeKMUtrjZ7RuArjVMTDF4.jpg","adult":false,"overview":"A young lion cub named Simba can't wait to be king. But his uncle craves the title for himself and will stop at nothing to get it.","release_date":"1994-05-07"},{"vote_count":503,"id":521029,"video":false,"vote_average":6,"title":"Annabelle Comes Home","popularity":37.025,"poster_path":"\/qWsHMrbg9DsBY3bCMk9jyYCRVRs.jpg","original_language":"en","original_title":"Annabelle Comes Home","genre_ids":[27],"backdrop_path":"\/dBt0DoFfbhOI4ypUfRj1uTq623M.jpg","adult":false,"overview":"Determined to keep Annabelle from wreaking more havoc, demonologists Ed and Lorraine Warren bring the possessed doll to the locked artifacts room in their home, placing her “safely” behind sacred glass and enlisting a priest’s holy blessing. But an unholy night of horror awaits as Annabelle awakens the evil spirits in the room, who all set their sights on a new target—the Warrens' ten-year-old daughter, Judy, and her friends.","release_date":"2019-06-26"},{"vote_count":2976,"id":404368,"video":false,"vote_average":7.2,"title":"Ralph Breaks the Internet","popularity":36.827,"poster_path":"\/qEnH5meR381iMpmCumAIMswcQw2.jpg","original_language":"en","original_title":"Ralph Breaks the Internet","genre_ids":[10751,16,35,12],"backdrop_path":"\/88poTBTafMXaz73vYi3c74g0y2k.jpg","adult":false,"overview":"Video game bad guy Ralph and fellow misfit Vanellope von Schweetz must risk it all by traveling to the World Wide Web in search of a replacement part to save Vanellope's video game, \"Sugar Rush.\" In way over their heads, Ralph and Vanellope rely on the citizens of the internet -- the netizens -- to help navigate their way, including an entrepreneur named Yesss, who is the head algorithm and the heart and soul of trend-making site BuzzzTube.","release_date":"2018-11-20"},{"vote_count":6708,"id":260513,"video":false,"vote_average":7.6,"title":"Incredibles 2","popularity":36.816,"poster_path":"\/9lFKBtaVIhP7E2Pk0IY1CwTKTMZ.jpg","original_language":"en","original_title":"Incredibles 2","genre_ids":[28,12,16,10751],"backdrop_path":"\/mabuNsGJgRuCTuGqjFkWe1xdu19.jpg","adult":false,"overview":"Elastigirl springs into action to save the day, while Mr. Incredible faces his greatest challenge yet – taking care of the problems of his three children.","release_date":"2018-06-14"},{"vote_count":5184,"id":9741,"video":false,"vote_average":7.1,"title":"Unbreakable","popularity":36.816,"poster_path":"\/pvL37V88plePxFSszCbV3wRHiBm.jpg","original_language":"en","original_title":"Unbreakable","genre_ids":[53,18,9648],"backdrop_path":"\/fhlqvfWMoNKmwsh1kF4NG6uQwGj.jpg","adult":false,"overview":"An ordinary man makes an extraordinary discovery when a train accident leaves his fellow passengers dead — and him unscathed. The answer to this mystery could lie with the mysterious Elijah Price, a man who suffers from a disease that renders his bones as fragile as glass.","release_date":"2000-11-13"},{"vote_count":6126,"id":332562,"video":false,"vote_average":7.5,"title":"A Star Is Born","popularity":36.062,"poster_path":"\/wrFpXMNBRj2PBiN4Z5kix51XaIZ.jpg","original_language":"en","original_title":"A Star Is Born","genre_ids":[18,10749,10402],"backdrop_path":"\/mnDvPokXpvsdPcWSjNRPhiiLOKu.jpg","adult":false,"overview":"Seasoned musician Jackson Maine discovers — and falls in love with — struggling artist Ally. She has just about given up on her dream to make it big as a singer — until Jack coaxes her into the spotlight. But even as Ally's career takes off, the personal side of their relationship is breaking down, as Jack fights an ongoing battle with his own internal demons.","release_date":"2018-10-03"},{"vote_count":3910,"id":490132,"video":false,"vote_average":8.3,"title":"Green Book","popularity":35.95,"poster_path":"\/7BsvSuDQuoqhWmU2fL7W2GOcZHU.jpg","original_language":"en","original_title":"Green Book","genre_ids":[18,35],"backdrop_path":"\/78PjwaykLY2QqhMfWRDvmfbC6EV.jpg","adult":false,"overview":"Tony Lip, a bouncer in 1962, is hired to drive pianist Don Shirley on a tour through the Deep South in the days when African Americans, forced to find alternate accommodations and services due to segregation laws below the Mason-Dixon Line, relied on a guide called The Negro Motorist Green Book.","release_date":"2018-11-16"}]}
